Animal Crossing Game Sentiment Analysis
…
Rows: 2,999
Columns: 4
$ grade     <dbl> 4, 5, 0, 0, 0, 0, 0, 0, 0, 0, 1, 0, 0, 0, 0, 0, 0, 0, 0, 0, …
$ user_name <chr> "mds27272", "lolo2178", "Roachant", "Houndf", "ProfessorFox"…
$ text      <chr> "My gf started playing before me. No option to create my own…
$ date      <date> 2020-03-20, 2020-03-20, 2020-03-20, 2020-03-20, 2020-03-20,…

Exploratory Analysis

user_reviews %>% 
  count(user_name, text)   # There are 2999 distinct users, with each user giving one review

# A tibble: 2,999 × 3
   user_name    text                                                           n
   <chr>        <chr>                                                      <int>
 1 000PLAYER000 Cant stop playing!                                             1
 2 000anon2759  one island per console. greedy and unfair, an anti-consum…     1
 3 11_11        Both me and my little sister were excited for this game a…     1
 4 12hwilso     Would be good, but only allows one island per console. Ev…     1
 5 1mooey       Fantastic game and fun to play. Although you can’t have m…     1
 6 24ths        It’s sh*t that you can’t have your own island if you shar…     1
 7 3nd3r02      Even though the game itself is great and as gorgeous and …     1
 8 425_Flex     Just like every other recent reviewer giving it a negativ…     1
 9 486eHyMy     We need equal values and opportunities for all players on…     1
10 4Plants      Finally an animal Crossing where we can put our leave dow…     1
# ℹ 2,989 more rows
…
# Most common words
most_common_words <- user_reviews %>% 
  unnest_tokens(word, text) %>% 
  count(word, sort = TRUE) %>%      # stop words are the most common words
  anti_join(stop_words) %>% 
  slice_max(n, n = 800)     # After removal of stop words, the most common words are game, island, switch,play and player

Joining with `by = join_by(word)`

# I retain only the top 800 words since the user reviews data set doesn't contain a big word vocabulary, this is to avoid a highly sparse matrix during model building

most_common_words

# A tibble: 815 × 2
   word         n
   <chr>    <int>
 1 game      8769
 2 island    3974
 3 switch    2214
 4 play      2176
 5 player    1844
 6 nintendo  1695
 7 console   1489
 8 expand    1393
 9 crossing  1371
10 animal    1369
# ℹ 805 more rows

most_common_words %>% 
  arrange(n)

# A tibble: 815 × 2
   word            n
   <chr>       <int>
 1 blast          24
 2 brand          24
 3 bunch          24
 4 business       24
 5 classic        24
 6 clothing       24
 7 cosas          24
 8 creativity     24
 9 eventually     24
10 experiences    24
# ℹ 805 more rows
…
